\BOOKMARK [2][]{Outline0.1}{Motivation}{}% 1
\BOOKMARK [2][]{Outline0.2}{Problem Statement}{}% 2
\BOOKMARK [2][]{Outline0.3}{Algorithm}{}% 3
\BOOKMARK [3][]{Outline0.3.1.23}{Horn Clauses}{Outline0.3}% 4
\BOOKMARK [3][]{Outline0.3.2.24}{Horn Clause Solvers}{Outline0.3}% 5
\BOOKMARK [2][]{Outline0.4}{Grammars as Horn Clauses}{}% 6
\BOOKMARK [3][]{Outline0.4.1.27}{Abstraction Function}{Outline0.4}% 7
\BOOKMARK [3][]{Outline0.4.2.31}{Grammars as Horn Clauses}{Outline0.4}% 8
\BOOKMARK [2][]{Outline0.5}{Certificate Generation}{}% 9
\BOOKMARK [3][]{Outline0.5.1.34}{Certificate Generation}{Outline0.5}% 10
\BOOKMARK [2][]{Outline0.6}{Abstraction Computation}{}% 11
\BOOKMARK [2][]{Outline0.7}{Counterexample Generation}{}% 12
