\relax 
\providecommand\hyper@newdestlabel[2]{}
\providecommand\HyperFirstAtBeginDocument{\AtBeginDocument}
\HyperFirstAtBeginDocument{\ifx\hyper@anchor\@undefined
\global\let\oldcontentsline\contentsline
\gdef\contentsline#1#2#3#4{\oldcontentsline{#1}{#2}{#3}}
\global\let\oldnewlabel\newlabel
\gdef\newlabel#1#2{\newlabelxx{#1}#2}
\gdef\newlabelxx#1#2#3#4#5#6{\oldnewlabel{#1}{{#2}{#3}}}
\AtEndDocument{\ifx\hyper@anchor\@undefined
\let\contentsline\oldcontentsline
\let\newlabel\oldnewlabel
\fi}
\fi}
\global\let\hyper@last\relax 
\gdef\HyperFirstAtBeginDocument#1{#1}
\providecommand\HyField@AuxAddToFields[1]{}
\providecommand\HyField@AuxAddToCoFields[2]{}
\@writefile{toc}{\beamer@endinputifotherversion {3.24pt}}
\@writefile{nav}{\beamer@endinputifotherversion {3.24pt}}
\@writefile{nav}{\headcommand {\slideentry {0}{0}{1}{1/1}{}{0}}}
\@writefile{nav}{\headcommand {\beamer@framepages {1}{1}}}
\@writefile{nav}{\headcommand {\slideentry {0}{0}{2}{2/2}{}{0}}}
\@writefile{nav}{\headcommand {\beamer@framepages {2}{2}}}
\@writefile{nav}{\headcommand {\slideentry {0}{0}{3}{3/3}{}{0}}}
\@writefile{nav}{\headcommand {\beamer@framepages {3}{3}}}
\@writefile{nav}{\headcommand {\slideentry {0}{0}{4}{4/4}{}{0}}}
\@writefile{nav}{\headcommand {\beamer@framepages {4}{4}}}
\@writefile{toc}{\beamer@sectionintoc {1}{Motivation}{5}{0}{1}}
\@writefile{nav}{\headcommand {\sectionentry {1}{Motivation}{5}{Motivation}{0}}}
\@writefile{nav}{\headcommand {\beamer@sectionpages {1}{4}}}
\@writefile{nav}{\headcommand {\beamer@subsectionpages {1}{4}}}
\@writefile{nav}{\headcommand {\slideentry {1}{0}{5}{5/5}{}{0}}}
\@writefile{nav}{\headcommand {\beamer@framepages {5}{5}}}
\@writefile{nav}{\headcommand {\slideentry {1}{0}{6}{6/6}{}{0}}}
\@writefile{nav}{\headcommand {\beamer@framepages {6}{6}}}
\@writefile{nav}{\headcommand {\slideentry {1}{0}{7}{7/9}{}{0}}}
\@writefile{nav}{\headcommand {\beamer@framepages {7}{9}}}
\@writefile{nav}{\headcommand {\slideentry {1}{0}{8}{10/10}{}{0}}}
\@writefile{nav}{\headcommand {\beamer@framepages {10}{10}}}
\@writefile{nav}{\headcommand {\slideentry {1}{0}{9}{11/11}{}{0}}}
\@writefile{nav}{\headcommand {\beamer@framepages {11}{11}}}
\@writefile{nav}{\headcommand {\slideentry {1}{0}{10}{12/12}{}{0}}}
\@writefile{nav}{\headcommand {\beamer@framepages {12}{12}}}
\@writefile{toc}{\beamer@sectionintoc {2}{Problem Statement}{13}{0}{2}}
\@writefile{nav}{\headcommand {\sectionentry {2}{Problem Statement}{13}{Problem Statement}{0}}}
\@writefile{nav}{\headcommand {\beamer@sectionpages {5}{12}}}
\@writefile{nav}{\headcommand {\beamer@subsectionpages {5}{12}}}
\@writefile{nav}{\headcommand {\slideentry {2}{0}{11}{13/13}{}{0}}}
\@writefile{nav}{\headcommand {\beamer@framepages {13}{13}}}
\@writefile{nav}{\headcommand {\slideentry {2}{0}{12}{14/14}{}{0}}}
\@writefile{nav}{\headcommand {\beamer@framepages {14}{14}}}
\@writefile{nav}{\headcommand {\slideentry {2}{0}{13}{15/15}{}{0}}}
\@writefile{nav}{\headcommand {\beamer@framepages {15}{15}}}
\@writefile{nav}{\headcommand {\slideentry {2}{0}{14}{16/16}{}{0}}}
\@writefile{nav}{\headcommand {\beamer@framepages {16}{16}}}
\@writefile{nav}{\headcommand {\slideentry {2}{0}{15}{17/17}{}{0}}}
\@writefile{nav}{\headcommand {\beamer@framepages {17}{17}}}
\@writefile{nav}{\headcommand {\slideentry {2}{0}{16}{18/18}{}{0}}}
\@writefile{nav}{\headcommand {\beamer@framepages {18}{18}}}
\@writefile{nav}{\headcommand {\slideentry {2}{0}{17}{19/19}{}{0}}}
\@writefile{nav}{\headcommand {\beamer@framepages {19}{19}}}
\@writefile{nav}{\headcommand {\slideentry {2}{0}{18}{20/20}{}{0}}}
\@writefile{nav}{\headcommand {\beamer@framepages {20}{20}}}
\@writefile{nav}{\headcommand {\slideentry {2}{0}{19}{21/21}{}{0}}}
\@writefile{nav}{\headcommand {\beamer@framepages {21}{21}}}
\@writefile{toc}{\beamer@sectionintoc {3}{Algorithm}{22}{0}{3}}
\@writefile{nav}{\headcommand {\sectionentry {3}{Algorithm}{22}{Algorithm}{0}}}
\@writefile{nav}{\headcommand {\beamer@sectionpages {13}{21}}}
\@writefile{nav}{\headcommand {\beamer@subsectionpages {13}{21}}}
\newlabel{fig:three-phases}{{20}{22}{Algorithm}{Doc-Start}{}}
\@writefile{snm}{\beamer@slide {fig:three-phases}{22}}
\@writefile{nav}{\headcommand {\slideentry {3}{0}{20}{22/22}{}{0}}}
\@writefile{nav}{\headcommand {\beamer@framepages {22}{22}}}
\@writefile{toc}{\beamer@subsectionintoc {3}{1}{Horn Clauses}{23}{0}{3}}
\@writefile{nav}{\headcommand {\beamer@subsectionentry {0}{3}{1}{23}{Horn Clauses}}\headcommand {\beamer@subsectionpages {22}{22}}}
\@writefile{nav}{\headcommand {\slideentry {3}{1}{1}{23/23}{Horn Clauses}{0}}}
\@writefile{nav}{\headcommand {\beamer@framepages {23}{23}}}
\@writefile{toc}{\beamer@subsectionintoc {3}{2}{Horn Clause Solvers}{24}{0}{3}}
\@writefile{nav}{\headcommand {\beamer@subsectionentry {0}{3}{2}{24}{Horn Clause Solvers}}\headcommand {\beamer@subsectionpages {23}{23}}}
\@writefile{nav}{\headcommand {\slideentry {3}{2}{1}{24/24}{Horn Clause Solvers}{0}}}
\@writefile{nav}{\headcommand {\beamer@framepages {24}{24}}}
\@writefile{toc}{\beamer@sectionintoc {4}{Grammars as Horn Clauses}{25}{0}{4}}
\@writefile{nav}{\headcommand {\sectionentry {4}{Grammars as Horn Clauses}{25}{Grammars as Horn Clauses}{0}}}
\@writefile{nav}{\headcommand {\beamer@sectionpages {22}{24}}}
\@writefile{nav}{\headcommand {\beamer@subsectionpages {24}{24}}}
\@writefile{nav}{\headcommand {\slideentry {4}{0}{2}{25/25}{}{0}}}
\@writefile{nav}{\headcommand {\beamer@framepages {25}{25}}}
\@writefile{nav}{\headcommand {\slideentry {4}{0}{3}{26/26}{}{0}}}
\@writefile{nav}{\headcommand {\beamer@framepages {26}{26}}}
\@writefile{toc}{\beamer@subsectionintoc {4}{1}{Abstraction Function}{27}{0}{4}}
\@writefile{nav}{\headcommand {\beamer@subsectionentry {0}{4}{1}{27}{Abstraction Function}}\headcommand {\beamer@subsectionpages {25}{26}}}
\@writefile{nav}{\headcommand {\slideentry {4}{1}{1}{27/27}{Abstraction Function}{0}}}
\@writefile{nav}{\headcommand {\beamer@framepages {27}{27}}}
\@writefile{snm}{\beamer@slide {eq:count-abs}{28}}
\newlabel{eq:count-abs}{{1}{28}{Abstraction Function}{Doc-Start}{}}
\@writefile{nav}{\headcommand {\slideentry {4}{1}{2}{28/28}{Abstraction Function}{0}}}
\@writefile{nav}{\headcommand {\beamer@framepages {28}{28}}}
\@writefile{snm}{\beamer@slide {eq:incl-excl}{29}}
\newlabel{eq:incl-excl}{{2}{29}{Abstraction Function}{Doc-Start}{}}
\@writefile{nav}{\headcommand {\slideentry {4}{1}{3}{29/29}{Abstraction Function}{0}}}
\@writefile{nav}{\headcommand {\beamer@framepages {29}{29}}}
\@writefile{nav}{\headcommand {\slideentry {4}{1}{4}{30/30}{Abstraction Function}{0}}}
\@writefile{nav}{\headcommand {\beamer@framepages {30}{30}}}
\@writefile{toc}{\beamer@subsectionintoc {4}{2}{Grammars as Horn Clauses}{31}{0}{4}}
\@writefile{nav}{\headcommand {\beamer@subsectionentry {0}{4}{2}{31}{Grammars as Horn Clauses}}\headcommand {\beamer@subsectionpages {27}{30}}}
\@writefile{nav}{\headcommand {\slideentry {4}{2}{1}{31/31}{Grammars as Horn Clauses}{0}}}
\@writefile{nav}{\headcommand {\beamer@framepages {31}{31}}}
\@writefile{nav}{\headcommand {\slideentry {4}{2}{2}{32/32}{Grammars as Horn Clauses}{0}}}
\@writefile{nav}{\headcommand {\beamer@framepages {32}{32}}}
\@writefile{toc}{\beamer@sectionintoc {5}{Certificate Generation}{33}{0}{5}}
\@writefile{nav}{\headcommand {\sectionentry {5}{Certificate Generation}{33}{Certificate Generation}{0}}}
\@writefile{nav}{\headcommand {\beamer@sectionpages {25}{32}}}
\@writefile{nav}{\headcommand {\beamer@subsectionpages {31}{32}}}
\@writefile{nav}{\headcommand {\slideentry {5}{0}{3}{33/33}{}{0}}}
\@writefile{nav}{\headcommand {\beamer@framepages {33}{33}}}
\@writefile{toc}{\beamer@subsectionintoc {5}{1}{Certificate Generation}{34}{0}{5}}
\@writefile{nav}{\headcommand {\beamer@subsectionentry {0}{5}{1}{34}{Certificate Generation}}\headcommand {\beamer@subsectionpages {33}{33}}}
\@writefile{nav}{\headcommand {\slideentry {5}{1}{1}{34/34}{Certificate Generation}{0}}}
\@writefile{nav}{\headcommand {\beamer@framepages {34}{34}}}
\@writefile{nav}{\headcommand {\slideentry {5}{1}{2}{35/35}{Certificate Generation}{0}}}
\@writefile{nav}{\headcommand {\beamer@framepages {35}{35}}}
\@writefile{toc}{\beamer@sectionintoc {6}{Abstraction Computation}{36}{0}{6}}
\@writefile{nav}{\headcommand {\sectionentry {6}{Abstraction Computation}{36}{Abstraction Computation}{0}}}
\@writefile{nav}{\headcommand {\beamer@sectionpages {33}{35}}}
\@writefile{nav}{\headcommand {\beamer@subsectionpages {34}{35}}}
\@writefile{nav}{\headcommand {\slideentry {6}{0}{3}{36/36}{}{0}}}
\@writefile{nav}{\headcommand {\beamer@framepages {36}{36}}}
\@writefile{nav}{\headcommand {\slideentry {6}{0}{4}{37/37}{}{0}}}
\@writefile{nav}{\headcommand {\beamer@framepages {37}{37}}}
\@writefile{toc}{\beamer@sectionintoc {7}{Counterexample Generation}{38}{0}{7}}
\@writefile{nav}{\headcommand {\sectionentry {7}{Counterexample Generation}{38}{Counterexample Generation}{0}}}
\@writefile{nav}{\headcommand {\beamer@sectionpages {36}{37}}}
\@writefile{nav}{\headcommand {\beamer@subsectionpages {36}{37}}}
\@writefile{nav}{\headcommand {\slideentry {7}{0}{5}{38/38}{}{0}}}
\@writefile{nav}{\headcommand {\beamer@framepages {38}{38}}}
\@writefile{nav}{\headcommand {\slideentry {7}{0}{6}{39/39}{}{0}}}
\@writefile{nav}{\headcommand {\beamer@framepages {39}{39}}}
\@writefile{nav}{\headcommand {\slideentry {7}{0}{7}{40/40}{}{0}}}
\@writefile{nav}{\headcommand {\beamer@framepages {40}{40}}}
\@writefile{nav}{\headcommand {\slideentry {7}{0}{8}{41/41}{}{0}}}
\@writefile{nav}{\headcommand {\beamer@framepages {41}{41}}}
\@writefile{nav}{\headcommand {\slideentry {7}{0}{9}{42/42}{}{0}}}
\@writefile{nav}{\headcommand {\beamer@framepages {42}{42}}}
\@writefile{nav}{\headcommand {\slideentry {7}{0}{10}{43/45}{}{0}}}
\@writefile{nav}{\headcommand {\beamer@framepages {43}{45}}}
\@writefile{nav}{\headcommand {\slideentry {7}{0}{11}{46/50}{}{0}}}
\@writefile{nav}{\headcommand {\beamer@framepages {46}{50}}}
\@writefile{nav}{\headcommand {\slideentry {7}{0}{12}{51/55}{}{0}}}
\@writefile{nav}{\headcommand {\beamer@framepages {51}{55}}}
\@writefile{nav}{\headcommand {\slideentry {7}{0}{13}{56/56}{}{0}}}
\@writefile{nav}{\headcommand {\beamer@framepages {56}{56}}}
\@writefile{nav}{\headcommand {\slideentry {7}{0}{14}{57/59}{}{0}}}
\@writefile{nav}{\headcommand {\beamer@framepages {57}{59}}}
\@writefile{nav}{\headcommand {\slideentry {7}{0}{15}{60/60}{}{0}}}
\@writefile{nav}{\headcommand {\beamer@framepages {60}{60}}}
\@writefile{nav}{\headcommand {\slideentry {7}{0}{16}{61/61}{}{0}}}
\@writefile{nav}{\headcommand {\beamer@framepages {61}{61}}}
\@writefile{nav}{\headcommand {\slideentry {7}{0}{17}{62/62}{}{0}}}
\@writefile{nav}{\headcommand {\beamer@framepages {62}{62}}}
\@writefile{nav}{\headcommand {\beamer@partpages {1}{62}}}
\@writefile{nav}{\headcommand {\beamer@subsectionpages {38}{62}}}
\@writefile{nav}{\headcommand {\beamer@sectionpages {38}{62}}}
\@writefile{nav}{\headcommand {\beamer@documentpages {62}}}
\@writefile{nav}{\headcommand {\def \inserttotalframenumber {48}}}
