\relax 
\providecommand\hyper@newdestlabel[2]{}
\abx@aux@sortscheme{none}
\abx@aux@refcontext{none/global/}
\providecommand\HyperFirstAtBeginDocument{\AtBeginDocument}
\HyperFirstAtBeginDocument{\ifx\hyper@anchor\@undefined
\global\let\oldcontentsline\contentsline
\gdef\contentsline#1#2#3#4{\oldcontentsline{#1}{#2}{#3}}
\global\let\oldnewlabel\newlabel
\gdef\newlabel#1#2{\newlabelxx{#1}#2}
\gdef\newlabelxx#1#2#3#4#5#6{\oldnewlabel{#1}{{#2}{#3}}}
\AtEndDocument{\ifx\hyper@anchor\@undefined
\let\contentsline\oldcontentsline
\let\newlabel\oldnewlabel
\fi}
\fi}
\global\let\hyper@last\relax 
\gdef\HyperFirstAtBeginDocument#1{#1}
\providecommand\HyField@AuxAddToFields[1]{}
\providecommand\HyField@AuxAddToCoFields[2]{}
\abx@aux@cite{Axelsson2008}
\abx@aux@segm{0}{0}{Axelsson2008}
\abx@aux@cite{Creus2014}
\abx@aux@segm{0}{0}{Creus2014}
\abx@aux@cite{Madhavan}
\abx@aux@segm{0}{0}{Madhavan}
\@writefile{toc}{\boolfalse {citerequest}\boolfalse {citetracker}\boolfalse {pagetracker}\boolfalse {backtracker}\relax }
\@writefile{lof}{\boolfalse {citerequest}\boolfalse {citetracker}\boolfalse {pagetracker}\boolfalse {backtracker}\relax }
\@writefile{lot}{\boolfalse {citerequest}\boolfalse {citetracker}\boolfalse {pagetracker}\boolfalse {backtracker}\relax }
\@writefile{toc}{\defcounter {refsection}{0}\relax }\@writefile{toc}{\contentsline {chapter}{\numberline {1}Introduction}{1}{chapter.1}}
\@writefile{lof}{\defcounter {refsection}{0}\relax }\@writefile{lof}{\addvspace {10\p@ }}
\@writefile{lot}{\defcounter {refsection}{0}\relax }\@writefile{lot}{\addvspace {10\p@ }}
\@writefile{loa}{\defcounter {refsection}{0}\relax }\@writefile{loa}{\addvspace {10\p@ }}
\newlabel{chap:intro}{{1}{1}{Introduction}{chapter.1}{}}
\@writefile{toc}{\defcounter {refsection}{0}\relax }\@writefile{toc}{\contentsline {section}{\numberline {1.1}Motivation}{1}{section.1.1}}
\newlabel{1@xvr}{{}{1}{Motivation}{section.1.1}{}}
\newlabel{1@vr}{{}{1}{Motivation}{section.1.1}{}}
\abx@aux@cite{de2008z3}
\abx@aux@segm{0}{0}{de2008z3}
\abx@aux@segm{0}{0}{Axelsson2008}
\@writefile{lop}{\defcounter {refsection}{0}\relax }\@writefile{lop}{\contentsline {program}{\numberline {1}{\ignorespaces Motivating Example\relax }}{2}{program.1}}
\providecommand*\caption@xref[2]{\@setref\relax\@undefined{#1}}
\newlabel{fig:example1}{{1}{2}{Motivating Example\relax }{program.1}{}}
\@writefile{toc}{\defcounter {refsection}{0}\relax }\@writefile{toc}{\contentsline {section}{\numberline {1.2}Contributions}{3}{section.1.2}}
\abx@aux@cite{JSL:9106942}
\abx@aux@segm{0}{0}{JSL:9106942}
\abx@aux@cite{horn}
\abx@aux@segm{0}{0}{horn}
\@writefile{toc}{\defcounter {refsection}{0}\relax }\@writefile{toc}{\contentsline {chapter}{\numberline {2}Overview}{5}{chapter.2}}
\@writefile{lof}{\defcounter {refsection}{0}\relax }\@writefile{lof}{\addvspace {10\p@ }}
\@writefile{lot}{\defcounter {refsection}{0}\relax }\@writefile{lot}{\addvspace {10\p@ }}
\@writefile{loa}{\defcounter {refsection}{0}\relax }\@writefile{loa}{\addvspace {10\p@ }}
\@writefile{toc}{\defcounter {refsection}{0}\relax }\@writefile{toc}{\contentsline {section}{\numberline {2.1}Preliminaries}{5}{section.2.1}}
\@writefile{toc}{\defcounter {refsection}{0}\relax }\@writefile{toc}{\contentsline {subsection}{\numberline {2.1.1}Context-free Grammars}{5}{subsection.2.1.1}}
\@writefile{toc}{\defcounter {refsection}{0}\relax }\@writefile{toc}{\contentsline {subsection}{\numberline {2.1.2}Horn Clause}{5}{subsection.2.1.2}}
\abx@aux@cite{duality}
\abx@aux@segm{0}{0}{duality}
\abx@aux@cite{hoder2012generalized}
\abx@aux@segm{0}{0}{hoder2012generalized}
\abx@aux@segm{0}{0}{de2008z3}
\abx@aux@cite{cousot1977abstract}
\abx@aux@segm{0}{0}{cousot1977abstract}
\@writefile{toc}{\defcounter {refsection}{0}\relax }\@writefile{toc}{\contentsline {subsection}{\numberline {2.1.3}Horn Clause Solver}{6}{subsection.2.1.3}}
\@writefile{lop}{\defcounter {refsection}{0}\relax }\@writefile{lop}{\contentsline {program}{\numberline {2}{\ignorespaces Factorial program as a horn clause\relax }}{7}{program.2}}
\newlabel{fig:horn-clause-factorial}{{2}{7}{Factorial program as a horn clause\relax }{program.2}{}}
\@writefile{toc}{\defcounter {refsection}{0}\relax }\@writefile{toc}{\contentsline {subsection}{\numberline {2.1.4}Abstract Interpretation}{7}{subsection.2.1.4}}
\@writefile{toc}{\defcounter {refsection}{0}\relax }\@writefile{toc}{\contentsline {section}{\numberline {2.2}Notations}{7}{section.2.2}}
\@writefile{toc}{\defcounter {refsection}{0}\relax }\@writefile{toc}{\contentsline {section}{\numberline {2.3}Problem Statement}{8}{section.2.3}}
\newlabel{sec:prob-stmt}{{2.3}{8}{Problem Statement}{section.2.3}{}}
\@writefile{toc}{\defcounter {refsection}{0}\relax }\@writefile{toc}{\contentsline {section}{\numberline {2.4}Overview of the algorithm}{8}{section.2.4}}
\@writefile{toc}{\defcounter {refsection}{0}\relax }\@writefile{toc}{\contentsline {subsection}{\numberline {2.4.1}Abstraction Functions}{8}{subsection.2.4.1}}
\@writefile{lof}{\defcounter {refsection}{0}\relax }\@writefile{lof}{\contentsline {figure}{\numberline {2.1}{\ignorespaces Three phases of our algorithm\relax }}{9}{figure.caption.1}}
\newlabel{fig:three-phases}{{2.1}{9}{Three phases of our algorithm\relax }{figure.caption.1}{}}
\newlabel{eq:count-abs}{{2.4.1.1}{9}{Abstraction Functions}{equation.2.4.1.1}{}}
\newlabel{eq:incl-excl}{{2.4.1.2}{9}{Abstraction Functions}{equation.2.4.1.2}{}}
\@writefile{toc}{\defcounter {refsection}{0}\relax }\@writefile{toc}{\contentsline {subsection}{\numberline {2.4.2}Algorithm via an Example}{9}{subsection.2.4.2}}
\@writefile{lop}{\defcounter {refsection}{0}\relax }\@writefile{lop}{\contentsline {program}{\numberline {3}{\ignorespaces Palindrome grammar\relax }}{10}{program.3}}
\newlabel{fig:demo}{{3}{10}{Palindrome grammar\relax }{program.3}{}}
\@writefile{toc}{\defcounter {refsection}{0}\relax }\@writefile{toc}{\contentsline {subsubsection}{Handling Type-B errors}{11}{section*.2}}
\@writefile{toc}{\defcounter {refsection}{0}\relax }\@writefile{toc}{\contentsline {chapter}{\numberline {3}Algorithm}{13}{chapter.3}}
\@writefile{lof}{\defcounter {refsection}{0}\relax }\@writefile{lof}{\addvspace {10\p@ }}
\@writefile{lot}{\defcounter {refsection}{0}\relax }\@writefile{lot}{\addvspace {10\p@ }}
\@writefile{loa}{\defcounter {refsection}{0}\relax }\@writefile{loa}{\addvspace {10\p@ }}
\newlabel{chap:design-impl}{{3}{13}{Algorithm}{chapter.3}{}}
\@writefile{toc}{\defcounter {refsection}{0}\relax }\@writefile{toc}{\contentsline {section}{\numberline {3.1}Encoding of CFGs for Certificate Generation}{13}{section.3.1}}
\newlabel{enc-cert-gen}{{3.1}{13}{Encoding of CFGs for Certificate Generation}{section.3.1}{}}
\@writefile{toc}{\defcounter {refsection}{0}\relax }\@writefile{toc}{\contentsline {section}{\numberline {3.2}Encoding of CFGs for String Computation}{14}{section.3.2}}
\newlabel{ennc-str-comp}{{3.2}{14}{Encoding of CFGs for String Computation}{section.3.2}{}}
\@writefile{toc}{\defcounter {refsection}{0}\relax }\@writefile{toc}{\contentsline {section}{\numberline {3.3}Certificate Generation}{15}{section.3.3}}
\newlabel{chap:gen_cert}{{3.3}{15}{Certificate Generation}{section.3.3}{}}
\newlabel{alg:algo_gen_cert}{{\caption@xref {alg:algo_gen_cert}{ on input line 71}}{15}{Certificate Generation}{algocf.caption.3}{}}
\@writefile{loa}{\defcounter {refsection}{0}\relax }\@writefile{loa}{\contentsline {algocf}{\numberline {1}{\ignorespaces Get Certificate\relax }}{15}{algocf.1}}
\@writefile{toc}{\defcounter {refsection}{0}\relax }\@writefile{toc}{\contentsline {section}{\numberline {3.4}Abstraction computation}{16}{section.3.4}}
\newlabel{algo_gen_abstraction}{{\caption@xref {algo_gen_abstraction}{ on input line 111}}{16}{Abstraction computation}{algocf.caption.4}{}}
\@writefile{loa}{\defcounter {refsection}{0}\relax }\@writefile{loa}{\contentsline {algocf}{\numberline {2}{\ignorespaces Get counter-example string abstraction\relax }}{16}{algocf.2}}
\@writefile{toc}{\defcounter {refsection}{0}\relax }\@writefile{toc}{\contentsline {section}{\numberline {3.5}String Computation}{16}{section.3.5}}
\newlabel{string_comp}{{3.5}{16}{String Computation}{section.3.5}{}}
\newlabel{alg:algo_convertCFG}{{\caption@xref {alg:algo_convertCFG}{ on input line 143}}{17}{String Computation}{algocf.caption.5}{}}
\@writefile{loa}{\defcounter {refsection}{0}\relax }\@writefile{loa}{\contentsline {algocf}{\numberline {3}{\ignorespaces Transform CFG\relax }}{17}{algocf.3}}
\newlabel{alg:alg_str_gen}{{\caption@xref {alg:alg_str_gen}{ on input line 174}}{17}{String Computation}{algocf.caption.6}{}}
\@writefile{loa}{\defcounter {refsection}{0}\relax }\@writefile{loa}{\contentsline {algocf}{\numberline {4}{\ignorespaces Generate String\relax }}{17}{algocf.4}}
\@writefile{lop}{\defcounter {refsection}{0}\relax }\@writefile{lop}{\contentsline {program}{\numberline {4}{\ignorespaces Grammar Transformation Example\relax }}{18}{program.4}}
\newlabel{fig:trans}{{4}{18}{Grammar Transformation Example\relax }{program.4}{}}
\abx@aux@segm{0}{0}{Axelsson2008}
\abx@aux@segm{0}{0}{Axelsson2008}
\@writefile{toc}{\defcounter {refsection}{0}\relax }\@writefile{toc}{\contentsline {chapter}{\numberline {4}Implementation and Experiments}{19}{chapter.4}}
\@writefile{lof}{\defcounter {refsection}{0}\relax }\@writefile{lof}{\addvspace {10\p@ }}
\@writefile{lot}{\defcounter {refsection}{0}\relax }\@writefile{lot}{\addvspace {10\p@ }}
\@writefile{loa}{\defcounter {refsection}{0}\relax }\@writefile{loa}{\addvspace {10\p@ }}
\newlabel{chap->impl-exp}{{4}{19}{Implementation and Experiments}{chapter.4}{}}
\@writefile{toc}{\defcounter {refsection}{0}\relax }\@writefile{toc}{\contentsline {section}{\numberline {4.1}Discussion on cfganalyser benchamarks}{19}{section.4.1}}
\@writefile{toc}{\defcounter {refsection}{0}\relax }\@writefile{toc}{\contentsline {subsection}{\numberline {4.1.1}Example 1}{19}{subsection.4.1.1}}
\@writefile{lop}{\defcounter {refsection}{0}\relax }\@writefile{lop}{\contentsline {program}{\numberline {5}{\ignorespaces Case Study example 1\relax }}{20}{program.5}}
\newlabel{fig->case-study-1}{{5}{20}{Case Study example 1\relax }{program.5}{}}
\@writefile{toc}{\defcounter {refsection}{0}\relax }\@writefile{toc}{\contentsline {subsection}{\numberline {4.1.2}Example 2}{21}{subsection.4.1.2}}
\@writefile{lop}{\defcounter {refsection}{0}\relax }\@writefile{lop}{\contentsline {program}{\numberline {6}{\ignorespaces Case Study example 2\relax }}{21}{program.6}}
\newlabel{fig->case-study-2}{{6}{21}{Case Study example 2\relax }{program.6}{}}
\@writefile{toc}{\defcounter {refsection}{0}\relax }\@writefile{toc}{\contentsline {subsection}{\numberline {4.1.3}Example 3}{22}{subsection.4.1.3}}
\@writefile{lop}{\defcounter {refsection}{0}\relax }\@writefile{lop}{\contentsline {program}{\numberline {7}{\ignorespaces Case Study example 3\relax }}{22}{program.7}}
\newlabel{fig->case-study-21 6 01}{{7}{22}{Case Study example 3\relax }{program.7}{}}
\@writefile{toc}{\defcounter {refsection}{0}\relax }\@writefile{toc}{\contentsline {subsection}{\numberline {4.1.4}Example 4}{23}{subsection.4.1.4}}
\@writefile{lop}{\defcounter {refsection}{0}\relax }\@writefile{lop}{\contentsline {program}{\numberline {8}{\ignorespaces Case Study example 4\relax }}{24}{program.8}}
\newlabel{fig->case-study-01 6 83}{{8}{24}{Case Study example 4\relax }{program.8}{}}
\@writefile{toc}{\defcounter {refsection}{0}\relax }\@writefile{toc}{\contentsline {subsection}{\numberline {4.1.5}Example 5}{24}{subsection.4.1.5}}
\@writefile{lop}{\defcounter {refsection}{0}\relax }\@writefile{lop}{\contentsline {program}{\numberline {9}{\ignorespaces Case Study example 5\relax }}{25}{program.9}}
\newlabel{fig->case-study-01 10 8}{{9}{25}{Case Study example 5\relax }{program.9}{}}
\@writefile{toc}{\defcounter {refsection}{0}\relax }\@writefile{toc}{\contentsline {subsection}{\numberline {4.1.6}Example 6}{26}{subsection.4.1.6}}
\@writefile{lop}{\defcounter {refsection}{0}\relax }\@writefile{lop}{\contentsline {program}{\numberline {10}{\ignorespaces Case Study example 6\relax }}{26}{program.10}}
\newlabel{fig->case-study-01 97 8}{{10}{26}{Case Study example 6\relax }{program.10}{}}
\@writefile{toc}{\defcounter {refsection}{0}\relax }\@writefile{toc}{\contentsline {subsection}{\numberline {4.1.7}Example 7}{27}{subsection.4.1.7}}
\@writefile{lop}{\defcounter {refsection}{0}\relax }\@writefile{lop}{\contentsline {program}{\numberline {11}{\ignorespaces Case Study example 7\relax }}{27}{program.11}}
\newlabel{fig->case-study-01 195 8}{{11}{27}{Case Study example 7\relax }{program.11}{}}
\@writefile{toc}{\defcounter {refsection}{0}\relax }\@writefile{toc}{\contentsline {subsection}{\numberline {4.1.8}Example 8}{28}{subsection.4.1.8}}
\@writefile{lop}{\defcounter {refsection}{0}\relax }\@writefile{lop}{\contentsline {program}{\numberline {12}{\ignorespaces Case Study example 8\relax }}{28}{program.12}}
\newlabel{fig->case-study-a 43 1}{{12}{28}{Case Study example 8\relax }{program.12}{}}
\@writefile{toc}{\defcounter {refsection}{0}\relax }\@writefile{toc}{\contentsline {subsection}{\numberline {4.1.9}Example 9}{28}{subsection.4.1.9}}
\@writefile{lop}{\defcounter {refsection}{0}\relax }\@writefile{lop}{\contentsline {program}{\numberline {13}{\ignorespaces Case Study example 9\relax }}{29}{program.13}}
\newlabel{fig->case-study-a 1 1}{{13}{29}{Case Study example 9\relax }{program.13}{}}
\@writefile{toc}{\defcounter {refsection}{0}\relax }\@writefile{toc}{\contentsline {subsection}{\numberline {4.1.10}Example 10}{29}{subsection.4.1.10}}
\@writefile{lop}{\defcounter {refsection}{0}\relax }\@writefile{lop}{\contentsline {program}{\numberline {14}{\ignorespaces Case Study example 10\relax }}{29}{program.14}}
\newlabel{fig->case-study-ab 17 8}{{14}{29}{Case Study example 10\relax }{program.14}{}}
\@writefile{toc}{\defcounter {refsection}{0}\relax }\@writefile{toc}{\contentsline {subsection}{\numberline {4.1.11}Example 11}{30}{subsection.4.1.11}}
\@writefile{lop}{\defcounter {refsection}{0}\relax }\@writefile{lop}{\contentsline {program}{\numberline {15}{\ignorespaces Case Study example 11\relax }}{31}{program.15}}
\newlabel{fig->case-study-ab 72 6}{{15}{31}{Case Study example 11\relax }{program.15}{}}
\@writefile{toc}{\defcounter {refsection}{0}\relax }\@writefile{toc}{\contentsline {subsection}{\numberline {4.1.12}Example 12}{31}{subsection.4.1.12}}
\@writefile{lop}{\defcounter {refsection}{0}\relax }\@writefile{lop}{\contentsline {program}{\numberline {16}{\ignorespaces Case Study example 12\relax }}{31}{program.16}}
\newlabel{fig->case-study-ab 73 6}{{16}{31}{Case Study example 12\relax }{program.16}{}}
\@writefile{toc}{\defcounter {refsection}{0}\relax }\@writefile{toc}{\contentsline {subsection}{\numberline {4.1.13}Example 13}{32}{subsection.4.1.13}}
\@writefile{lop}{\defcounter {refsection}{0}\relax }\@writefile{lop}{\contentsline {program}{\numberline {17}{\ignorespaces Case Study example 13\relax }}{32}{program.17}}
\newlabel{fig->case-study-abc 82 3}{{17}{32}{Case Study example 13\relax }{program.17}{}}
\abx@aux@cite{Rust}
\abx@aux@segm{0}{0}{Rust}
\@writefile{toc}{\defcounter {refsection}{0}\relax }\@writefile{toc}{\contentsline {section}{\numberline {4.2}Case study from Compilers Course}{33}{section.4.2}}
\@writefile{toc}{\defcounter {refsection}{0}\relax }\@writefile{toc}{\contentsline {subsection}{\numberline {4.2.1}Expression grammar}{33}{subsection.4.2.1}}
\@writefile{toc}{\defcounter {refsection}{0}\relax }\@writefile{toc}{\contentsline {subsection}{\numberline {4.2.2}Statement grammar}{34}{subsection.4.2.2}}
\@writefile{toc}{\defcounter {refsection}{0}\relax }\@writefile{toc}{\contentsline {subsection}{\numberline {4.2.3}Function grammar}{35}{subsection.4.2.3}}
\abx@aux@segm{0}{0}{Madhavan}
\abx@aux@segm{0}{0}{Axelsson2008}
\abx@aux@segm{0}{0}{Creus2014}
\abx@aux@segm{0}{0}{Axelsson2008}
\@writefile{toc}{\defcounter {refsection}{0}\relax }\@writefile{toc}{\contentsline {chapter}{\numberline {5}Related work}{37}{chapter.5}}
\@writefile{lof}{\defcounter {refsection}{0}\relax }\@writefile{lof}{\addvspace {10\p@ }}
\@writefile{lot}{\defcounter {refsection}{0}\relax }\@writefile{lot}{\addvspace {10\p@ }}
\@writefile{loa}{\defcounter {refsection}{0}\relax }\@writefile{loa}{\addvspace {10\p@ }}
\@writefile{toc}{\defcounter {refsection}{0}\relax }\@writefile{toc}{\contentsline {chapter}{\numberline {6}Conclusions}{39}{chapter.6}}
\@writefile{lof}{\defcounter {refsection}{0}\relax }\@writefile{lof}{\addvspace {10\p@ }}
\@writefile{lot}{\defcounter {refsection}{0}\relax }\@writefile{lot}{\addvspace {10\p@ }}
\@writefile{loa}{\defcounter {refsection}{0}\relax }\@writefile{loa}{\addvspace {10\p@ }}
\gdef\minted@oldcachelist{,
  98A708D338173BEC020D2BA133FEFDF0AAF2CC25471917964966A56B6CC58DD8.pygtex,
  default-pyg-prefix.pygstyle,
  bw.pygstyle,
  1B8F15499EDCFDBBAB65F010FFF8DB0BAAF2CC25471917964966A56B6CC58DD8.pygtex,
  98A708D338173BEC020D2BA133FEFDF0AAF2CC25471917964966A56B6CC58DD8.pygtex,
  A607A9C25EF4219F6F857F0C99AA22F6AAF2CC25471917964966A56B6CC58DD8.pygtex,
  CFDD7D9513B80E48BB6EEDC75F17C9EBAAF2CC25471917964966A56B6CC58DD8.pygtex,
  5CF6429AFAE325060A3D5911BFF2ED43AAF2CC25471917964966A56B6CC58DD8.pygtex,
  501728445E6AD5E47C0C4CA87DD04405AAF2CC25471917964966A56B6CC58DD8.pygtex,
  0944521935CC17F1489F7EFA7380F04AAAF2CC25471917964966A56B6CC58DD8.pygtex,
  34F7F0D15A296E037F70628DF4521A9FAAF2CC25471917964966A56B6CC58DD8.pygtex,
  AC6A71F58A1BCB56614A2184E2CF3C8FAAF2CC25471917964966A56B6CC58DD8.pygtex,
  EC10F9EEF508C7300C3416B53A7AAF9CAAF2CC25471917964966A56B6CC58DD8.pygtex,
  F8DF4396E8A3891CB57EABBD19A2A908AAF2CC25471917964966A56B6CC58DD8.pygtex,
  C245C229DBF8F4A074D9C09C36471925AAF2CC25471917964966A56B6CC58DD8.pygtex,
  A061B8CA00DF7801A15B199E962AE932AAF2CC25471917964966A56B6CC58DD8.pygtex,
  A4DA19509EC8937C3C892EFEAB54224EAAF2CC25471917964966A56B6CC58DD8.pygtex,
  F32037CB1B12B24BE0D07C7475AB71A0AAF2CC25471917964966A56B6CC58DD8.pygtex,
  FB4F20EB596264C82719973F4B4F9829AAF2CC25471917964966A56B6CC58DD8.pygtex}
