\relax 
\providecommand\hyper@newdestlabel[2]{}
\abx@aux@sortscheme{none}
\providecommand\HyperFirstAtBeginDocument{\AtBeginDocument}
\HyperFirstAtBeginDocument{\ifx\hyper@anchor\@undefined
\global\let\oldcontentsline\contentsline
\gdef\contentsline#1#2#3#4{\oldcontentsline{#1}{#2}{#3}}
\global\let\oldnewlabel\newlabel
\gdef\newlabel#1#2{\newlabelxx{#1}#2}
\gdef\newlabelxx#1#2#3#4#5#6{\oldnewlabel{#1}{{#2}{#3}}}
\AtEndDocument{\ifx\hyper@anchor\@undefined
\let\contentsline\oldcontentsline
\let\newlabel\oldnewlabel
\fi}
\fi}
\global\let\hyper@last\relax 
\gdef\HyperFirstAtBeginDocument#1{#1}
\providecommand\HyField@AuxAddToFields[1]{}
\providecommand\HyField@AuxAddToCoFields[2]{}
\@input{prelude.aux}
\@writefile{toc}{\boolfalse {citerequest}\boolfalse {citetracker}\boolfalse {pagetracker}\boolfalse {backtracker}\relax }
\@writefile{lof}{\boolfalse {citerequest}\boolfalse {citetracker}\boolfalse {pagetracker}\boolfalse {backtracker}\relax }
\@writefile{lot}{\boolfalse {citerequest}\boolfalse {citetracker}\boolfalse {pagetracker}\boolfalse {backtracker}\relax }
\@writefile{toc}{\defcounter {refsection}{0}\relax }\@writefile{toc}{\contentsline {chapter}{\numberline {1}Introduction}{1}{chapter.1}}
\@writefile{lof}{\defcounter {refsection}{0}\relax }\@writefile{lof}{\addvspace {10\p@ }}
\@writefile{lot}{\defcounter {refsection}{0}\relax }\@writefile{lot}{\addvspace {10\p@ }}
\@writefile{loa}{\defcounter {refsection}{0}\relax }\@writefile{loa}{\addvspace {10\p@ }}
\newlabel{chap:intro}{{1}{1}{Introduction}{chapter.1}{}}
\@writefile{toc}{\defcounter {refsection}{0}\relax }\@writefile{toc}{\contentsline {section}{\numberline {1.1}Motivation}{1}{section.1.1}}
\abx@aux@cite{Axelsson2008}
\abx@aux@cite{Creus2014}
\abx@aux@cite{Madhavan}
\newlabel{1@xvr}{{}{2}{Motivation}{section.1.1}{}}
\newlabel{1@vr}{{}{2}{Motivation}{section.1.1}{}}
\abx@aux@cite{de2008z3}
\@writefile{lop}{\defcounter {refsection}{0}\relax }\@writefile{lop}{\contentsline {program}{\numberline {1.1}{\ignorespaces Motivating Example\relax }}{3}{program.1.1}}
\providecommand*\caption@xref[2]{\@setref\relax\@undefined{#1}}
\newlabel{fig:example1}{{1.1}{3}{Motivating Example\relax }{program.1.1}{}}
\@writefile{toc}{\defcounter {refsection}{0}\relax }\@writefile{toc}{\contentsline {section}{\numberline {1.2}Contributions}{3}{section.1.2}}
\abx@aux@cite{JSL:9106942}
\abx@aux@cite{horn}
\@writefile{toc}{\defcounter {refsection}{0}\relax }\@writefile{toc}{\contentsline {chapter}{\numberline {2}Overview}{5}{chapter.2}}
\@writefile{lof}{\defcounter {refsection}{0}\relax }\@writefile{lof}{\addvspace {10\p@ }}
\@writefile{lot}{\defcounter {refsection}{0}\relax }\@writefile{lot}{\addvspace {10\p@ }}
\@writefile{loa}{\defcounter {refsection}{0}\relax }\@writefile{loa}{\addvspace {10\p@ }}
\@writefile{toc}{\defcounter {refsection}{0}\relax }\@writefile{toc}{\contentsline {section}{\numberline {2.1}Preliminaries}{5}{section.2.1}}
\@writefile{toc}{\defcounter {refsection}{0}\relax }\@writefile{toc}{\contentsline {subsection}{\numberline {2.1.1}Context-free Grammars}{5}{subsection.2.1.1}}
\@writefile{toc}{\defcounter {refsection}{0}\relax }\@writefile{toc}{\contentsline {subsection}{\numberline {2.1.2}Horn Clause}{5}{subsection.2.1.2}}
\abx@aux@cite{duality}
\abx@aux@cite{hoder2012generalized}
\@writefile{toc}{\defcounter {refsection}{0}\relax }\@writefile{toc}{\contentsline {subsection}{\numberline {2.1.3}Horn Clause Solver}{6}{subsection.2.1.3}}
\@writefile{lop}{\defcounter {refsection}{0}\relax }\@writefile{lop}{\contentsline {program}{\numberline {2.1}{\ignorespaces Factorial program as a horn clause\relax }}{7}{program.2.1}}
\newlabel{fig:horn-clause-factorial}{{2.1}{7}{Factorial program as a horn clause\relax }{program.2.1}{}}
\abx@aux@cite{cousot1977abstract}
\@writefile{toc}{\defcounter {refsection}{0}\relax }\@writefile{toc}{\contentsline {subsection}{\numberline {2.1.4}Abstract Interpretation}{8}{subsection.2.1.4}}
\@writefile{toc}{\defcounter {refsection}{0}\relax }\@writefile{toc}{\contentsline {section}{\numberline {2.2}Notations}{8}{section.2.2}}
\@writefile{toc}{\defcounter {refsection}{0}\relax }\@writefile{toc}{\contentsline {section}{\numberline {2.3}Problem Statement}{9}{section.2.3}}
\newlabel{sec:prob-stmt}{{2.3}{9}{Problem Statement}{section.2.3}{}}
\@writefile{toc}{\defcounter {refsection}{0}\relax }\@writefile{toc}{\contentsline {section}{\numberline {2.4}Overview of the algorithm}{9}{section.2.4}}
\@writefile{toc}{\defcounter {refsection}{0}\relax }\@writefile{toc}{\contentsline {subsection}{\numberline {2.4.1}Abstraction Functions}{10}{subsection.2.4.1}}
\newlabel{eq:count-abs}{{2.4.1.1}{10}{Abstraction Functions}{equation.2.4.1.1}{}}
\newlabel{eq:incl-excl}{{2.4.1.2}{10}{Abstraction Functions}{equation.2.4.1.2}{}}
\@writefile{toc}{\defcounter {refsection}{0}\relax }\@writefile{toc}{\contentsline {subsection}{\numberline {2.4.2}Algorithm via an Example}{10}{subsection.2.4.2}}
